{
    "data": [
        {
            "name": "Forest",
            "skin": "forest_3",
            "x": -5,
            "y": -5,
            "content": null
        },
        {
            "name": "Forest",
            "skin": "forest_2",
            "x": -4,
            "y": -5,
            "content": null
        },
        {
            "name": "Forest",
            "skin": "forest_2",
            "x": -3,
            "y": -5,
            "content": null
        },
        {
            "name": "Forest",
            "skin": "forest_3",
            "x": -2,
            "y": -5,
            "content": null
        },
        {
            "name": "Forest",
            "skin": "forest_1",
            "x": -1,
            "y": -5,
            "content": null
        },
        {
            "name": "Forest",
            "skin": "forest_2",
            "x": 0,
            "y": -5,
            "content": null
        },
        {
            "name": "Forest",
            "skin": "forest_3",
            "x": 1,
            "y": -5,
            "content": null
        },
        {
            "name": "Forest",
            "skin": "forest_2",
            "x": 2,
            "y": -5,
            "content": null
        },
        {
            "name": "Forest",
            "skin": "forest_3",
            "x": 3,
            "y": -5,
            "content": null
        },
        {
            "name": "Forest",
            "skin": "forest_1",
            "x": 4,
            "y": -5,
            "content": null
        },
        {
            "name": "Forest",
            "skin": "forest_2",
            "x": 5,
            "y": -5,
            "content": null
        },
        {
            "name": "Forest",
            "skin": "forest_3",
            "x": 6,
            "y": -5,
            "content": null
        },
        {
            "name": "Forest",
            "skin": "forest_1",
            "x": 7,
            "y": -5,
            "content": null
        },
        {
            "name": "Forest",
            "skin": "forest_2",
            "x": 8,
            "y": -5,
            "content": null
        },
        {
            "name": "Forest",
            "skin": "forest_3",
            "x": 9,
            "y": -5,
            "content": null
        },
        {
            "name": "Forest",
            "skin": "forest_2",
            "x": 10,
            "y": -5,
            "content": null
        },
        {
            "name": "Forest",
            "skin": "forest_3",
            "x": 11,
            "y": -5,
            "content": null
        },
        {
            "name": "Forest",
            "skin": "forest_2",
            "x": -5,
            "y": -4,
            "content": null
        },
        {
            "name": "Forest",
            "skin": "forest_2",
            "x": -4,
            "y": -4,
            "content": null
        },
        {
            "name": "Forest",
            "skin": "forest_lake1",
            "x": -3,
            "y": -4,
            "content": {
                "type": "resource",
                "code": "salmon_fishing_spot"
            }
        },
        {
            "name": "Forest",
            "skin": "forest_lake2",
            "x": -2,
            "y": -4,
            "content": {
                "type": "resource",
                "code": "salmon_fishing_spot"
            }
        },
        {
            "name": "Forest",
            "skin": "forest_2",
            "x": -1,
            "y": -4,
            "content": null
        },
        {
            "name": "Forest",
            "skin": "forest_1",
            "x": 0,
            "y": -4,
            "content": null
        },
        {
            "name": "Forest",
            "skin": "forest_4",
            "x": 1,
            "y": -4,
            "content": null
        },
        {
            "name": "Forest",
            "skin": "forest_3",
            "x": 2,
            "y": -4,
            "content": null
        },
        {
            "name": "Forest",
            "skin": "forest_1",
            "x": 3,
            "y": -4,
            "content": null
        },
        {
            "name": "Forest",
            "skin": "forest_2",
            "x": 4,
            "y": -4,
            "content": null
        },
        {
            "name": "Forest",
            "skin": "forest_3",
            "x": 5,
            "y": -4,
            "content": null
        },
        {
            "name": "Forest",
            "skin": "forest_goblin_wolfrider1",
            "x": 6,
            "y": -4,
            "content": {
                "type": "monster",
                "code": "goblin_wolfrider"
            }
        },
        {
            "name": "Forest",
            "skin": "forest_orc2",
            "x": 7,
            "y": -4,
            "content": {
                "type": "monster",
                "code": "orc"
            }
        },
        {
            "name": "Forest",
            "skin": "forest_ogre1",
            "x": 8,
            "y": -4,
            "content": {
                "type": "monster",
                "code": "ogre"
            }
        },
        {
            "name": "Forest",
            "skin": "forest_2",
            "x": 9,
            "y": -4,
            "content": null
        },
        {
            "name": "Forest",
            "skin": "forest_1",
            "x": 10,
            "y": -4,
            "content": null
        },
        {
            "name": "Forest",
            "skin": "forest_1",
            "x": 11,
            "y": -4,
            "content": null
        },
        {
            "name": "Forest",
            "skin": "forest_2",
            "x": -5,
            "y": -3,
            "content": null
        },
        {
            "name": "Forest",
            "skin": "forest_2",
            "x": -4,
            "y": -3,
            "content": null
        },
        {
            "name": "Forest",
            "skin": "forest_pig1",
            "x": -3,
            "y": -3,
            "content": {
                "type": "monster",
                "code": "pig"
            }
        },
        {
            "name": "Forest",
            "skin": "forest_woodcuttingstation1",
            "x": -2,
            "y": -3,
            "content": {
                "type": "workshop",
                "code": "woodcutting"
            }
        },
        {
            "name": "Forest",
            "skin": "forest_1",
            "x": -1,
            "y": -3,
            "content": null
        },
        {
            "name": "Forest",
            "skin": "forest_2",
            "x": 0,
            "y": -3,
            "content": null
        },
        {
            "name": "Forest",
            "skin": "forest_3",
            "x": 1,
            "y": -3,
            "content": null
        },
        {
            "name": "Forest",
            "skin": "forest_2",
            "x": 2,
            "y": -3,
            "content": null
        },
        {
            "name": "Forest",
            "skin": "forest_3",
            "x": 3,
            "y": -3,
            "content": null
        },
        {
            "name": "Forest",
            "skin": "forest_1",
            "x": 4,
            "y": -3,
            "content": null
        },
        {
            "name": "Forest",
            "skin": "forest_2",
            "x": 5,
            "y": -3,
            "content": null
        },
        {
            "name": "Forest",
            "skin": "forest_goldore1",
            "x": 6,
            "y": -3,
            "content": {
                "type": "resource",
                "code": "gold_rocks"
            }
        },
        {
            "name": "Forest",
            "skin": "forest_cyclops2",
            "x": 7,
            "y": -3,
            "content": {
                "type": "monster",
                "code": "cyclops"
            }
        },
        {
            "name": "Forest",
            "skin": "forest_cyclops1",
            "x": 8,
            "y": -3,
            "content": {
                "type": "monster",
                "code": "cyclops"
            }
        },
        {
            "name": "Forest",
            "skin": "forest_goblin_wolfrider2",
            "x": 9,
            "y": -3,
            "content": {
                "type": "monster",
                "code": "goblin_wolfrider"
            }
        },
        {
            "name": "Forest",
            "skin": "forest_2",
            "x": 10,
            "y": -3,
            "content": null
        },
        {
            "name": "Forest",
            "skin": "forest_3",
            "x": 11,
            "y": -3,
            "content": null
        },
        {
            "name": "Forest",
            "skin": "forest_2",
            "x": -5,
            "y": -2,
            "content": null
        },
        {
            "name": "Forest",
            "skin": "forest_2",
            "x": -4,
            "y": -2,
            "content": null
        },
        {
            "name": "Forest",
            "skin": "forest_3",
            "x": -3,
            "y": -2,
            "content": null
        },
        {
            "name": "Forest",
            "skin": "forest_1",
            "x": -2,
            "y": -2,
            "content": null
        },
        {
            "name": "Forest",
            "skin": "forest_2",
            "x": -1,
            "y": -2,
            "content": null
        },
        {
            "name": "Forest",
            "skin": "forest_blueslime1",
            "x": 0,
            "y": -2,
            "content": {
                "type": "monster",
                "code": "blue_slime"
            }
        },
        {
            "name": "Forest",
            "skin": "forest_yellowslime1",
            "x": 1,
            "y": -2,
            "content": {
                "type": "monster",
                "code": "yellow_slime"
            }
        },
        {
            "name": "Forest",
            "skin": "forest_redslime2",
            "x": 2,
            "y": -2,
            "content": {
                "type": "monster",
                "code": "red_slime"
            }
        },
        {
            "name": "Forest",
            "skin": "forest_greenslime1",
            "x": 3,
            "y": -2,
            "content": {
                "type": "monster",
                "code": "green_slime"
            }
        },
        {
            "name": "Forest",
            "skin": "forest_2",
            "x": 4,
            "y": -2,
            "content": null
        },
        {
            "name": "Forest",
            "skin": "forest_3",
            "x": 5,
            "y": -2,
            "content": null
        },
        {
            "name": "Forest",
            "skin": "forest_goblin1",
            "x": 6,
            "y": -2,
            "content": {
                "type": "monster",
                "code": "goblin"
            }
        },
        {
            "name": "Forest",
            "skin": "forest_orc1",
            "x": 7,
            "y": -2,
            "content": {
                "type": "monster",
                "code": "orc"
            }
        },
        {
            "name": "Forest",
            "skin": "forest_ogre2",
            "x": 8,
            "y": -2,
            "content": {
                "type": "monster",
                "code": "ogre"
            }
        },
        {
            "name": "Forest",
            "skin": "forest_goblin2",
            "x": 9,
            "y": -2,
            "content": {
                "type": "monster",
                "code": "goblin"
            }
        },
        {
            "name": "Forest",
            "skin": "forest_3",
            "x": 10,
            "y": -2,
            "content": null
        },
        {
            "name": "Forest",
            "skin": "forest_1",
            "x": 11,
            "y": -2,
            "content": null
        },
        {
            "name": "Forest",
            "skin": "forest_3",
            "x": -5,
            "y": -1,
            "content": null
        },
        {
            "name": "Forest",
            "skin": "forest_3",
            "x": -4,
            "y": -1,
            "content": null
        },
        {
            "name": "Forest",
            "skin": "forest_3",
            "x": -3,
            "y": -1,
            "content": null
        },
        {
            "name": "Forest",
            "skin": "forest_2",
            "x": -2,
            "y": -1,
            "content": null
        },
        {
            "name": "Forest",
            "skin": "forest_2",
            "x": -1,
            "y": -1,
            "content": null
        },
        {
            "name": "Forest",
            "skin": "forest_greenslime2",
            "x": 0,
            "y": -1,
            "content": {
                "type": "monster",
                "code": "green_slime"
            }
        },
        {
            "name": "Forest",
            "skin": "forest_redslime1",
            "x": 1,
            "y": -1,
            "content": {
                "type": "monster",
                "code": "red_slime"
            }
        },
        {
            "name": "Forest",
            "skin": "forest_blueslime2",
            "x": 2,
            "y": -1,
            "content": {
                "type": "monster",
                "code": "blue_slime"
            }
        },
        {
            "name": "Forest",
            "skin": "forest_2",
            "x": 3,
            "y": -1,
            "content": null
        },
        {
            "name": "Forest",
            "skin": "forest_yellowslime2",
            "x": 4,
            "y": -1,
            "content": {
                "type": "monster",
                "code": "yellow_slime"
            }
        },
        {
            "name": "Forest",
            "skin": "forest_road12",
            "x": 5,
            "y": -1,
            "content": null
        },
        {
            "name": "Forest",
            "skin": "forest_road13",
            "x": 6,
            "y": -1,
            "content": null
        },
        {
            "name": "Forest",
            "skin": "forest_road14",
            "x": 7,
            "y": -1,
            "content": null
        },
        {
            "name": "Forest",
            "skin": "forest_road15",
            "x": 8,
            "y": -1,
            "content": null
        },
        {
            "name": "Forest",
            "skin": "forest_1",
            "x": 9,
            "y": -1,
            "content": null
        },
        {
            "name": "Forest",
            "skin": "forest_1",
            "x": 10,
            "y": -1,
            "content": null
        },
        {
            "name": "Forest",
            "skin": "forest_1",
            "x": 11,
            "y": -1,
            "content": null
        },
        {
            "name": "Forest",
            "skin": "forest_4",
            "x": -5,
            "y": 0,
            "content": null
        },
        {
            "name": "Forest",
            "skin": "forest_4",
            "x": -4,
            "y": 0,
            "content": null
        },
        {
            "name": "Forest",
            "skin": "forest_wolf2",
            "x": -3,
            "y": 0,
            "content": {
                "type": "monster",
                "code": "wolf"
            }
        },
        {
            "name": "Forest",
            "skin": "forest_3",
            "x": -2,
            "y": 0,
            "content": null
        },
        {
            "name": "Forest",
            "skin": "forest_ashtree2",
            "x": -1,
            "y": 0,
            "content": {
                "type": "resource",
                "code": "ash_tree"
            }
        },
        {
            "name": "Spawn",
            "skin": "spawn",
            "x": 0,
            "y": 0,
            "content": null
        },
        {
            "name": "Forest",
            "skin": "forest_3",
            "x": 1,
            "y": 0,
            "content": null
        },
        {
            "name": "Forest",
            "skin": "forest_copperore1",
            "x": 2,
            "y": 0,
            "content": {
                "type": "resource",
                "code": "copper_rocks"
            }
        },
        {
            "name": "Forest",
            "skin": "forest_4",
            "x": 3,
            "y": 0,
            "content": null
        },
        {
            "name": "Forest",
            "skin": "forest_3",
            "x": 4,
            "y": 0,
            "content": null
        },
        {
            "name": "Forest",
            "skin": "forest_road11",
            "x": 5,
            "y": 0,
            "content": null
        },
        {
            "name": "Forest",
            "skin": "forest_2",
            "x": 6,
            "y": 0,
            "content": null
        },
        {
            "name": "Forest",
            "skin": "forest_2",
            "x": 7,
            "y": 0,
            "content": null
        },
        {
            "name": "Forest",
            "skin": "forest_2",
            "x": 8,
            "y": 0,
            "content": null
        },
        {
            "name": "Forest",
            "skin": "forest_2",
            "x": 9,
            "y": 0,
            "content": null
        }
    ],
    "total": 357,
    "page": 1,
    "size": 100,
    "pages": 4
}